{
    "items": [
        {
            "id": 1,
            "name": "Ignores extra whitespaces",
            "uri": "http://<endpoint>/api/v3/judges/1",
            "type": "testcase"
        },
        {
            "id": 2,
            "name":"Ignores FP rounding up to 10^-2",
            "uri": "http://<endpoint>/api/v3/judges/2",
            "type": "testcase"
        }
    ],
    "paging": {
        "limit": 2,
        "offset": 4,
        "total": 9,
        "pages": 5,
        "prev": "http://<endpoint>/api/v3/judges?offset=2",
        "next": "http://<endpoint>/api/v3/judges?offset=6"
    }
}